UCDP GED Clusteranalyse
…
top_conflicts_by_cluster

Simple feature collection with 44 features and 5 fields
Geometry type: GEOMETRY
Dimension:     XY
Bounding box:  xmin: -2904076 ymin: -1160338 xmax: 2688770 ymax: 705411.9
Projected CRS: +proj=laea +lat_0=15 +lon_0=10 +datum=WGS84 +units=m +no_defs
# A tibble: 44 × 6
   cluster_id conflict_new_id conflict_name                       n
        <dbl>           <int> <chr>                           <int>
 1          1             559 LRA - Civilians                    80
 2          1             314 Uganda: Government                 26
 3          1             309 Sudan: Government                  16
 4          1             554 SPLM/A - Civilians                  2
 5          1            4662 LRA - SPLM/A                        2
 6          2             309 Sudan: Government                  45
 7          2             480 Government of Sudan - Civilians     6
 8          2           15324 Hausa - Funj                        2
 9          2           15913 RSF - Civilians                     1
10          3             309 Sudan: Government                 216
# ℹ 34 more rows
# ℹ 2 more variables: geometry <GEOMETRY [m]>, share <dbl>
…
